trace_RW2.vcd
$timescale 1ns $end
$scope module logic $end
$var wire 32 acc_mems_0n1 acc_mems_0n1 $end
$var wire 32 acc_mems_0n2 acc_mems_0n2 $end
$var wire 32 acc_mems_0n3 acc_mems_0n3 $end
$var wire 32 branch_enable branch_enable $end
$var wire 32 mma_0_data_width mma_0_data_width $end
$var wire 32 mma_1_matrix_size mma_1_matrix_size $end
$var wire 8 mma_2_data_in_0 mma_2_data_in_0 $end
$var wire 8 mma_2_data_in_1 mma_2_data_in_1 $end
$var wire 8 mma_2_data_in_2 mma_2_data_in_2 $end
$var wire 8 mma_2_data_in_3 mma_2_data_in_3 $end
$var wire 8 mma_2_data_in_4 mma_2_data_in_4 $end
$var wire 8 mma_2_data_in_5 mma_2_data_in_5 $end
$var wire 8 mma_2_data_in_6 mma_2_data_in_6 $end
$var wire 8 mma_2_data_in_7 mma_2_data_in_7 $end
$var wire 8 mma_2_data_in_8 mma_2_data_in_8 $end
$var wire 8 mma_2_data_in_9 mma_2_data_in_9 $end
$var wire 8 mma_2_data_in_10 mma_2_data_in_10 $end
$var wire 8 mma_2_data_in_11 mma_2_data_in_11 $end
$var wire 8 mma_2_data_in_12 mma_2_data_in_12 $end
$var wire 8 mma_2_data_in_13 mma_2_data_in_13 $end
$var wire 8 mma_2_data_in_14 mma_2_data_in_14 $end
$var wire 8 mma_2_data_in_15 mma_2_data_in_15 $end
$var wire 1 mma_3_new_weight_0 mma_3_new_weight_0 $end
$var wire 1 mma_3_new_weight_1 mma_3_new_weight_1 $end
$var wire 1 mma_3_new_weight_2 mma_3_new_weight_2 $end
$var wire 1 mma_3_new_weight_3 mma_3_new_weight_3 $end
$var wire 1 mma_3_new_weight_4 mma_3_new_weight_4 $end
$var wire 1 mma_3_new_weight_5 mma_3_new_weight_5 $end
$var wire 1 mma_3_new_weight_6 mma_3_new_weight_6 $end
$var wire 1 mma_3_new_weight_7 mma_3_new_weight_7 $end
$var wire 1 mma_3_new_weight_8 mma_3_new_weight_8 $end
$var wire 1 mma_3_new_weight_9 mma_3_new_weight_9 $end
$var wire 1 mma_3_new_weight_10 mma_3_new_weight_10 $end
$var wire 1 mma_3_new_weight_11 mma_3_new_weight_11 $end
$var wire 1 mma_3_new_weight_12 mma_3_new_weight_12 $end
$var wire 1 mma_3_new_weight_13 mma_3_new_weight_13 $end
$var wire 1 mma_3_new_weight_14 mma_3_new_weight_14 $end
$var wire 1 mma_3_new_weight_15 mma_3_new_weight_15 $end
$var wire 2048 mma_4_weights_in mma_4_weights_in $end
$var wire 1 mma_5_weights_we mma_5_weights_we $end
$var wire 32 mouts_0 mouts_0 $end
$var wire 32 mouts_1 mouts_1 $end
$var wire 32 mouts_2 mouts_2 $end
$var wire 32 mouts_3 mouts_3 $end
$var wire 32 mouts_4 mouts_4 $end
$var wire 32 mouts_5 mouts_5 $end
$var wire 32 mouts_6 mouts_6 $end
$var wire 32 mouts_7 mouts_7 $end
$var wire 32 mouts_8 mouts_8 $end
$var wire 32 mouts_9 mouts_9 $end
$var wire 32 mouts_10 mouts_10 $end
$var wire 32 mouts_11 mouts_11 $end
$var wire 32 mouts_12 mouts_12 $end
$var wire 32 mouts_13 mouts_13 $end
$var wire 32 mouts_14 mouts_14 $end
$var wire 32 mouts_15 mouts_15 $end
$var wire 2048 weights_tilebuf4 weights_tilebuf4 $end
$upscope $end
$enddefinitions $end
$dumpvars
b0 acc_mems_0n1
b0 acc_mems_0n2
b0 acc_mems_0n3
b0 branch_enable
b1000 mma_0_data_width
b10000 mma_1_matrix_size
b0 mma_2_data_in_0
b0 mma_2_data_in_1
b0 mma_2_data_in_2
b0 mma_2_data_in_3
b0 mma_2_data_in_4
b0 mma_2_data_in_5
b0 mma_2_data_in_6
b0 mma_2_data_in_7
b0 mma_2_data_in_8
b0 mma_2_data_in_9
b0 mma_2_data_in_10
b0 mma_2_data_in_11
b0 mma_2_data_in_12
b0 mma_2_data_in_13
b0 mma_2_data_in_14
b0 mma_2_data_in_15
b0 mma_3_new_weight_0
b0 mma_3_new_weight_1
b0 mma_3_new_weight_2
b0 mma_3_new_weight_3
b0 mma_3_new_weight_4
b0 mma_3_new_weight_5
b0 mma_3_new_weight_6
b0 mma_3_new_weight_7
b0 mma_3_new_weight_8
b0 mma_3_new_weight_9
b0 mma_3_new_weight_10
b0 mma_3_new_weight_11
b0 mma_3_new_weight_12
b0 mma_3_new_weight_13
b0 mma_3_new_weight_14
b0 mma_3_new_weight_15
b0 mma_4_weights_in
b0 mma_5_weights_we
b0 mouts_0
b0 mouts_1
b0 mouts_2
b0 mouts_3
b0 mouts_4
b0 mouts_5
b0 mouts_6
b0 mouts_7
b0 mouts_8
b0 mouts_9
b0 mouts_10
b0 mouts_11
b0 mouts_12
b0 mouts_13
b0 mouts_14
b0 mouts_15
b0 weights_tilebuf4
$end
#0
b0 acc_mems_0n1
b0 acc_mems_0n2
b0 acc_mems_0n3
b0 branch_enable
b1000 mma_0_data_width
b10000 mma_1_matrix_size
b0 mma_2_data_in_0
b0 mma_2_data_in_1
b0 mma_2_data_in_2
b0 mma_2_data_in_3
b0 mma_2_data_in_4
b0 mma_2_data_in_5
b0 mma_2_data_in_6
b0 mma_2_data_in_7
b0 mma_2_data_in_8
b0 mma_2_data_in_9
b0 mma_2_data_in_10
b0 mma_2_data_in_11
b0 mma_2_data_in_12
b0 mma_2_data_in_13
b0 mma_2_data_in_14
b0 mma_2_data_in_15
b0 mma_3_new_weight_0
b0 mma_3_new_weight_1
b0 mma_3_new_weight_2
b0 mma_3_new_weight_3
b0 mma_3_new_weight_4
b0 mma_3_new_weight_5
b0 mma_3_new_weight_6
b0 mma_3_new_weight_7
b0 mma_3_new_weight_8
b0 mma_3_new_weight_9
b0 mma_3_new_weight_10
b0 mma_3_new_weight_11
b0 mma_3_new_weight_12
b0 mma_3_new_weight_13
b0 mma_3_new_weight_14
b0 mma_3_new_weight_15
b0 mma_4_weights_in
b0 mma_5_weights_we
b0 mouts_0
b0 mouts_1
b0 mouts_2
b0 mouts_3
b0 mouts_4
b0 mouts_5
b0 mouts_6
b0 mouts_7
b0 mouts_8
b0 mouts_9
b0 mouts_10
b0 mouts_11
b0 mouts_12
b0 mouts_13
b0 mouts_14
b0 mouts_15
b0 weights_tilebuf4
#1
b0 acc_mems_0n1
b0 acc_mems_0n2
b0 acc_mems_0n3
b0 branch_enable
b1000 mma_0_data_width
b10000 mma_1_matrix_size
b0 mma_2_data_in_0
b0 mma_2_data_in_1
b0 mma_2_data_in_2
b0 mma_2_data_in_3
b0 mma_2_data_in_4
b0 mma_2_data_in_5
b0 mma_2_data_in_6
b0 mma_2_data_in_7
b0 mma_2_data_in_8
b0 mma_2_data_in_9
b0 mma_2_data_in_10
b0 mma_2_data_in_11
b0 mma_2_data_in_12
b0 mma_2_data_in_13
b0 mma_2_data_in_14
b0 mma_2_data_in_15
b0 mma_3_new_weight_0
b0 mma_3_new_weight_1
b0 mma_3_new_weight_2
b0 mma_3_new_weight_3
b0 mma_3_new_weight_4
b0 mma_3_new_weight_5
b0 mma_3_new_weight_6
b0 mma_3_new_weight_7
b0 mma_3_new_weight_8
b0 mma_3_new_weight_9
b0 mma_3_new_weight_10
b0 mma_3_new_weight_11
b0 mma_3_new_weight_12
b0 mma_3_new_weight_13
b0 mma_3_new_weight_14
b0 mma_3_new_weight_15
b0 mma_4_weights_in
b0 mma_5_weights_we
b0 mouts_0
b0 mouts_1
b0 mouts_2
b0 mouts_3
b0 mouts_4
b0 mouts_5
b0 mouts_6
b0 mouts_7
b0 mouts_8
b0 mouts_9
b0 mouts_10
b0 mouts_11
b0 mouts_12
b0 mouts_13
b0 mouts_14
b0 mouts_15
b0 weights_tilebuf4
#2
b0 acc_mems_0n1
b0 acc_mems_0n2
b0 acc_mems_0n3
b0 branch_enable
b1000 mma_0_data_width
b10000 mma_1_matrix_size
b0 mma_2_data_in_0
b0 mma_2_data_in_1
b0 mma_2_data_in_2
b0 mma_2_data_in_3
b0 mma_2_data_in_4
b0 mma_2_data_in_5
b0 mma_2_data_in_6
b0 mma_2_data_in_7
b0 mma_2_data_in_8
b0 mma_2_data_in_9
b0 mma_2_data_in_10
b0 mma_2_data_in_11
b0 mma_2_data_in_12
b0 mma_2_data_in_13
b0 mma_2_data_in_14
b0 mma_2_data_in_15
b0 mma_3_new_weight_0
b0 mma_3_new_weight_1
b0 mma_3_new_weight_2
b0 mma_3_new_weight_3
b0 mma_3_new_weight_4
b0 mma_3_new_weight_5
b0 mma_3_new_weight_6
b0 mma_3_new_weight_7
b0 mma_3_new_weight_8
b0 mma_3_new_weight_9
b0 mma_3_new_weight_10
b0 mma_3_new_weight_11
b0 mma_3_new_weight_12
b0 mma_3_new_weight_13
b0 mma_3_new_weight_14
b0 mma_3_new_weight_15
b0 mma_4_weights_in
b0 mma_5_weights_we
b0 mouts_0
b0 mouts_1
b0 mouts_2
b0 mouts_3
b0 mouts_4
b0 mouts_5
b0 mouts_6
b0 mouts_7
b0 mouts_8
b0 mouts_9
b0 mouts_10
b0 mouts_11
b0 mouts_12
b0 mouts_13
b0 mouts_14
b0 mouts_15
b0 weights_tilebuf4
#3
b0 acc_mems_0n1
b0 acc_mems_0n2
b0 acc_mems_0n3
b0 branch_enable
b1000 mma_0_data_width
b10000 mma_1_matrix_size
b0 mma_2_data_in_0
b0 mma_2_data_in_1
b0 mma_2_data_in_2
b0 mma_2_data_in_3
b0 mma_2_data_in_4
b0 mma_2_data_in_5
b0 mma_2_data_in_6
b0 mma_2_data_in_7
b0 mma_2_data_in_8
b0 mma_2_data_in_9
b0 mma_2_data_in_10
b0 mma_2_data_in_11
b0 mma_2_data_in_12
b0 mma_2_data_in_13
b0 mma_2_data_in_14
b0 mma_2_data_in_15
b0 mma_3_new_weight_0
b0 mma_3_new_weight_1
b0 mma_3_new_weight_2
b0 mma_3_new_weight_3
b0 mma_3_new_weight_4
b0 mma_3_new_weight_5
b0 mma_3_new_weight_6
b0 mma_3_new_weight_7
b0 mma_3_new_weight_8
b0 mma_3_new_weight_9
b0 mma_3_new_weight_10
b0 mma_3_new_weight_11
b0 mma_3_new_weight_12
b0 mma_3_new_weight_13
b0 mma_3_new_weight_14
b0 mma_3_new_weight_15
b0 mma_4_weights_in
b0 mma_5_weights_we
b0 mouts_0
b0 mouts_1
b0 mouts_2
b0 mouts_3
b0 mouts_4
b0 mouts_5
b0 mouts_6
b0 mouts_7
b0 mouts_8
b0 mouts_9
b0 mouts_10
b0 mouts_11
b0 mouts_12
b0 mouts_13
b0 mouts_14
b0 mouts_15
b0 weights_tilebuf4
#4
b0 acc_mems_0n1
b0 acc_mems_0n2
b0 acc_mems_0n3
b0 branch_enable
b1000 mma_0_data_width
b10000 mma_1_matrix_size
b0 mma_2_data_in_0
b0 mma_2_data_in_1
b0 mma_2_data_in_2
b0 mma_2_data_in_3
b0 mma_2_data_in_4
b0 mma_2_data_in_5
b0 mma_2_data_in_6
b0 mma_2_data_in_7
b0 mma_2_data_in_8
b0 mma_2_data_in_9
b0 mma_2_data_in_10
b0 mma_2_data_in_11
b0 mma_2_data_in_12
b0 mma_2_data_in_13
b0 mma_2_data_in_14
b0 mma_2_data_in_15
b0 mma_3_new_weight_0
b0 mma_3_new_weight_1
b0 mma_3_new_weight_2
b0 mma_3_new_weight_3
b0 mma_3_new_weight_4
b0 mma_3_new_weight_5
b0 mma_3_new_weight_6
b0 mma_3_new_weight_7
b0 mma_3_new_weight_8
b0 mma_3_new_weight_9
b0 mma_3_new_weight_10
b0 mma_3_new_weight_11
b0 mma_3_new_weight_12
b0 mma_3_new_weight_13
b0 mma_3_new_weight_14
b0 mma_3_new_weight_15
b0 mma_4_weights_in
b0 mma_5_weights_we
b0 mouts_0
b0 mouts_1
b0 mouts_2
b0 mouts_3
b0 mouts_4
b0 mouts_5
b0 mouts_6
b0 mouts_7
b0 mouts_8
b0 mouts_9
b0 mouts_10
b0 mouts_11
b0 mouts_12
b0 mouts_13
b0 mouts_14
b0 mouts_15
b0 weights_tilebuf4
#5
b0 acc_mems_0n1
b0 acc_mems_0n2
b0 acc_mems_0n3
b0 branch_enable
b1000 mma_0_data_width
b10000 mma_1_matrix_size
b0 mma_2_data_in_0
b0 mma_2_data_in_1
b0 mma_2_data_in_2
b0 mma_2_data_in_3
b0 mma_2_data_in_4
b0 mma_2_data_in_5
b0 mma_2_data_in_6
b0 mma_2_data_in_7
b0 mma_2_data_in_8
b0 mma_2_data_in_9
b0 mma_2_data_in_10
b0 mma_2_data_in_11
b0 mma_2_data_in_12
b0 mma_2_data_in_13
b0 mma_2_data_in_14
b0 mma_2_data_in_15
b0 mma_3_new_weight_0
b0 mma_3_new_weight_1
b0 mma_3_new_weight_2
b0 mma_3_new_weight_3
b0 mma_3_new_weight_4
b0 mma_3_new_weight_5
b0 mma_3_new_weight_6
b0 mma_3_new_weight_7
b0 mma_3_new_weight_8
b0 mma_3_new_weight_9
b0 mma_3_new_weight_10
b0 mma_3_new_weight_11
b0 mma_3_new_weight_12
b0 mma_3_new_weight_13
b0 mma_3_new_weight_14
b0 mma_3_new_weight_15
b0 mma_4_weights_in
b0 mma_5_weights_we
b0 mouts_0
b0 mouts_1
b0 mouts_2
b0 mouts_3
b0 mouts_4
b0 mouts_5
b0 mouts_6
b0 mouts_7
b0 mouts_8
b0 mouts_9
b0 mouts_10
b0 mouts_11
b0 mouts_12
b0 mouts_13
b0 mouts_14
b0 mouts_15
b0 weights_tilebuf4
#6
b0 acc_mems_0n1
b0 acc_mems_0n2
b0 acc_mems_0n3
b0 branch_enable
b1000 mma_0_data_width
b10000 mma_1_matrix_size
b0 mma_2_data_in_0
b0 mma_2_data_in_1
b0 mma_2_data_in_2
b0 mma_2_data_in_3
b0 mma_2_data_in_4
b0 mma_2_data_in_5
b0 mma_2_data_in_6
b0 mma_2_data_in_7
b0 mma_2_data_in_8
b0 mma_2_data_in_9
b0 mma_2_data_in_10
b0 mma_2_data_in_11
b0 mma_2_data_in_12
b0 mma_2_data_in_13
b0 mma_2_data_in_14
b0 mma_2_data_in_15
b0 mma_3_new_weight_0
b0 mma_3_new_weight_1
b0 mma_3_new_weight_2
b0 mma_3_new_weight_3
b0 mma_3_new_weight_4
b0 mma_3_new_weight_5
b0 mma_3_new_weight_6
b0 mma_3_new_weight_7
b0 mma_3_new_weight_8
b0 mma_3_new_weight_9
b0 mma_3_new_weight_10
b0 mma_3_new_weight_11
b0 mma_3_new_weight_12
b0 mma_3_new_weight_13
b0 mma_3_new_weight_14
b0 mma_3_new_weight_15
b0 mma_4_weights_in
b0 mma_5_weights_we
b0 mouts_0
b0 mouts_1
b0 mouts_2
b0 mouts_3
b0 mouts_4
b0 mouts_5
b0 mouts_6
b0 mouts_7
b0 mouts_8
b0 mouts_9
b0 mouts_10
b0 mouts_11
b0 mouts_12
b0 mouts_13
b0 mouts_14
b0 mouts_15
b0 weights_tilebuf4
#7
b0 acc_mems_0n1
b0 acc_mems_0n2
b0 acc_mems_0n3
b0 branch_enable
b1000 mma_0_data_width
b10000 mma_1_matrix_size
b0 mma_2_data_in_0
b0 mma_2_data_in_1
b0 mma_2_data_in_2
b0 mma_2_data_in_3
b0 mma_2_data_in_4
b0 mma_2_data_in_5
b0 mma_2_data_in_6
b0 mma_2_data_in_7
b0 mma_2_data_in_8
b0 mma_2_data_in_9
b0 mma_2_data_in_10
b0 mma_2_data_in_11
b0 mma_2_data_in_12
b0 mma_2_data_in_13
b0 mma_2_data_in_14
b0 mma_2_data_in_15
b0 mma_3_new_weight_0
b0 mma_3_new_weight_1
b0 mma_3_new_weight_2
b0 mma_3_new_weight_3
b0 mma_3_new_weight_4
b0 mma_3_new_weight_5
b0 mma_3_new_weight_6
b0 mma_3_new_weight_7
b0 mma_3_new_weight_8
b0 mma_3_new_weight_9
b0 mma_3_new_weight_10
b0 mma_3_new_weight_11
b0 mma_3_new_weight_12
b0 mma_3_new_weight_13
b0 mma_3_new_weight_14
b0 mma_3_new_weight_15
b0 mma_4_weights_in
b0 mma_5_weights_we
b0 mouts_0
b0 mouts_1
b0 mouts_2
b0 mouts_3
b0 mouts_4
b0 mouts_5
b0 mouts_6
b0 mouts_7
b0 mouts_8
b0 mouts_9
b0 mouts_10
b0 mouts_11
b0 mouts_12
b0 mouts_13
b0 mouts_14
b0 mouts_15
b0 weights_tilebuf4
#8
b0 acc_mems_0n1
b0 acc_mems_0n2
b0 acc_mems_0n3
b0 branch_enable
b1000 mma_0_data_width
b10000 mma_1_matrix_size
b0 mma_2_data_in_0
b0 mma_2_data_in_1
b0 mma_2_data_in_2
b0 mma_2_data_in_3
b0 mma_2_data_in_4
b0 mma_2_data_in_5
b0 mma_2_data_in_6
b0 mma_2_data_in_7
b0 mma_2_data_in_8
b0 mma_2_data_in_9
b0 mma_2_data_in_10
b0 mma_2_data_in_11
b0 mma_2_data_in_12
b0 mma_2_data_in_13
b0 mma_2_data_in_14
b0 mma_2_data_in_15
b0 mma_3_new_weight_0
b0 mma_3_new_weight_1
b0 mma_3_new_weight_2
b0 mma_3_new_weight_3
b0 mma_3_new_weight_4
b0 mma_3_new_weight_5
b0 mma_3_new_weight_6
b0 mma_3_new_weight_7
b0 mma_3_new_weight_8
b0 mma_3_new_weight_9
b0 mma_3_new_weight_10
b0 mma_3_new_weight_11
b0 mma_3_new_weight_12
b0 mma_3_new_weight_13
b0 mma_3_new_weight_14
b0 mma_3_new_weight_15
b0 mma_4_weights_in
b0 mma_5_weights_we
b0 mouts_0
b0 mouts_1
b0 mouts_2
b0 mouts_3
b0 mouts_4
b0 mouts_5
b0 mouts_6
b0 mouts_7
b0 mouts_8
b0 mouts_9
b0 mouts_10
b0 mouts_11
b0 mouts_12
b0 mouts_13
b0 mouts_14
b0 mouts_15
b0 weights_tilebuf4
#9
b0 acc_mems_0n1
b0 acc_mems_0n2
b0 acc_mems_0n3
b0 branch_enable
b1000 mma_0_data_width
b10000 mma_1_matrix_size
b0 mma_2_data_in_0
b0 mma_2_data_in_1
b0 mma_2_data_in_2
b0 mma_2_data_in_3
b0 mma_2_data_in_4
b0 mma_2_data_in_5
b0 mma_2_data_in_6
b0 mma_2_data_in_7
b0 mma_2_data_in_8
b0 mma_2_data_in_9
b0 mma_2_data_in_10
b0 mma_2_data_in_11
b0 mma_2_data_in_12
b0 mma_2_data_in_13
b0 mma_2_data_in_14
b0 mma_2_data_in_15
b0 mma_3_new_weight_0
b0 mma_3_new_weight_1
b0 mma_3_new_weight_2
b0 mma_3_new_weight_3
b0 mma_3_new_weight_4
b0 mma_3_new_weight_5
b0 mma_3_new_weight_6
b0 mma_3_new_weight_7
b0 mma_3_new_weight_8
b0 mma_3_new_weight_9
b0 mma_3_new_weight_10
b0 mma_3_new_weight_11
b0 mma_3_new_weight_12
b0 mma_3_new_weight_13
b0 mma_3_new_weight_14
b0 mma_3_new_weight_15
b0 mma_4_weights_in
b0 mma_5_weights_we
b0 mouts_0
b0 mouts_1
b0 mouts_2
b0 mouts_3
b0 mouts_4
b0 mouts_5
b0 mouts_6
b0 mouts_7
b0 mouts_8
b0 mouts_9
b0 mouts_10
b0 mouts_11
b0 mouts_12
b0 mouts_13
b0 mouts_14
b0 mouts_15
b0 weights_tilebuf4
#10
b0 acc_mems_0n1
b0 acc_mems_0n2
b0 acc_mems_0n3
b0 branch_enable
b1000 mma_0_data_width
b10000 mma_1_matrix_size
b0 mma_2_data_in_0
b0 mma_2_data_in_1
b0 mma_2_data_in_2
b0 mma_2_data_in_3
b0 mma_2_data_in_4
b0 mma_2_data_in_5
b0 mma_2_data_in_6
b0 mma_2_data_in_7
b0 mma_2_data_in_8
b0 mma_2_data_in_9
b0 mma_2_data_in_10
b0 mma_2_data_in_11
b0 mma_2_data_in_12
b0 mma_2_data_in_13
b0 mma_2_data_in_14
b0 mma_2_data_in_15
b0 mma_3_new_weight_0
b0 mma_3_new_weight_1
b0 mma_3_new_weight_2
b0 mma_3_new_weight_3
b0 mma_3_new_weight_4
b0 mma_3_new_weight_5
b0 mma_3_new_weight_6
b0 mma_3_new_weight_7
b0 mma_3_new_weight_8
b0 mma_3_new_weight_9
b0 mma_3_new_weight_10
b0 mma_3_new_weight_11
b0 mma_3_new_weight_12
b0 mma_3_new_weight_13
b0 mma_3_new_weight_14
b0 mma_3_new_weight_15
b0 mma_4_weights_in
b0 mma_5_weights_we
b0 mouts_0
b0 mouts_1
b0 mouts_2
b0 mouts_3
b0 mouts_4
b0 mouts_5
b0 mouts_6
b0 mouts_7
b0 mouts_8
b0 mouts_9
b0 mouts_10
b0 mouts_11
b0 mouts_12
b0 mouts_13
b0 mouts_14
b0 mouts_15
b0 weights_tilebuf4
#11
b0 acc_mems_0n1
b0 acc_mems_0n2
b0 acc_mems_0n3
b0 branch_enable
b1000 mma_0_data_width
b10000 mma_1_matrix_size
b0 mma_2_data_in_0
b0 mma_2_data_in_1
b0 mma_2_data_in_2
b0 mma_2_data_in_3
b0 mma_2_data_in_4
b0 mma_2_data_in_5
b0 mma_2_data_in_6
b0 mma_2_data_in_7
b0 mma_2_data_in_8
b0 mma_2_data_in_9
b0 mma_2_data_in_10
b0 mma_2_data_in_11
b0 mma_2_data_in_12
b0 mma_2_data_in_13
b0 mma_2_data_in_14
b0 mma_2_data_in_15
b0 mma_3_new_weight_0
b0 mma_3_new_weight_1
b0 mma_3_new_weight_2
b0 mma_3_new_weight_3
b0 mma_3_new_weight_4
b0 mma_3_new_weight_5
b0 mma_3_new_weight_6
b0 mma_3_new_weight_7
b0 mma_3_new_weight_8
b0 mma_3_new_weight_9
b0 mma_3_new_weight_10
b0 mma_3_new_weight_11
b0 mma_3_new_weight_12
b0 mma_3_new_weight_13
b0 mma_3_new_weight_14
b0 mma_3_new_weight_15
b0 mma_4_weights_in
b0 mma_5_weights_we
b0 mouts_0
b0 mouts_1
b0 mouts_2
b0 mouts_3
b0 mouts_4
b0 mouts_5
b0 mouts_6
b0 mouts_7
b0 mouts_8
b0 mouts_9
b0 mouts_10
b0 mouts_11
b0 mouts_12
b0 mouts_13
b0 mouts_14
b0 mouts_15
b0 weights_tilebuf4
#12
b0 acc_mems_0n1
b0 acc_mems_0n2
b0 acc_mems_0n3
b0 branch_enable
b1000 mma_0_data_width
b10000 mma_1_matrix_size
b0 mma_2_data_in_0
b0 mma_2_data_in_1
b0 mma_2_data_in_2
b0 mma_2_data_in_3
b0 mma_2_data_in_4
b0 mma_2_data_in_5
b0 mma_2_data_in_6
b0 mma_2_data_in_7
b0 mma_2_data_in_8
b0 mma_2_data_in_9
b0 mma_2_data_in_10
b0 mma_2_data_in_11
b0 mma_2_data_in_12
b0 mma_2_data_in_13
b0 mma_2_data_in_14
b0 mma_2_data_in_15
b0 mma_3_new_weight_0
b0 mma_3_new_weight_1
b0 mma_3_new_weight_2
b0 mma_3_new_weight_3
b0 mma_3_new_weight_4
b0 mma_3_new_weight_5
b0 mma_3_new_weight_6
b0 mma_3_new_weight_7
b0 mma_3_new_weight_8
b0 mma_3_new_weight_9
b0 mma_3_new_weight_10
b0 mma_3_new_weight_11
b0 mma_3_new_weight_12
b0 mma_3_new_weight_13
b0 mma_3_new_weight_14
b0 mma_3_new_weight_15
b0 mma_4_weights_in
b0 mma_5_weights_we
b0 mouts_0
b0 mouts_1
b0 mouts_2
b0 mouts_3
b0 mouts_4
b0 mouts_5
b0 mouts_6
b0 mouts_7
b0 mouts_8
b0 mouts_9
b0 mouts_10
b0 mouts_11
b0 mouts_12
b0 mouts_13
b0 mouts_14
b0 mouts_15
b0 weights_tilebuf4
#13
b0 acc_mems_0n1
b0 acc_mems_0n2
b0 acc_mems_0n3
b0 branch_enable
b1000 mma_0_data_width
b10000 mma_1_matrix_size
b0 mma_2_data_in_0
b0 mma_2_data_in_1
b0 mma_2_data_in_2
b0 mma_2_data_in_3
b0 mma_2_data_in_4
b0 mma_2_data_in_5
b0 mma_2_data_in_6
b0 mma_2_data_in_7
b0 mma_2_data_in_8
b0 mma_2_data_in_9
b0 mma_2_data_in_10
b0 mma_2_data_in_11
b0 mma_2_data_in_12
b0 mma_2_data_in_13
b0 mma_2_data_in_14
b0 mma_2_data_in_15
b0 mma_3_new_weight_0
b0 mma_3_new_weight_1
b0 mma_3_new_weight_2
b0 mma_3_new_weight_3
b0 mma_3_new_weight_4
b0 mma_3_new_weight_5
b0 mma_3_new_weight_6
b0 mma_3_new_weight_7
b0 mma_3_new_weight_8
b0 mma_3_new_weight_9
b0 mma_3_new_weight_10
b0 mma_3_new_weight_11
b0 mma_3_new_weight_12
b0 mma_3_new_weight_13
b0 mma_3_new_weight_14
b0 mma_3_new_weight_15
b0 mma_4_weights_in
b0 mma_5_weights_we
b0 mouts_0
b0 mouts_1
b0 mouts_2
b0 mouts_3
b0 mouts_4
b0 mouts_5
b0 mouts_6
b0 mouts_7
b0 mouts_8
b0 mouts_9
b0 mouts_10
b0 mouts_11
b0 mouts_12
b0 mouts_13
b0 mouts_14
b0 mouts_15
b0 weights_tilebuf4
#14
b0 acc_mems_0n1
b0 acc_mems_0n2
b0 acc_mems_0n3
b0 branch_enable
b1000 mma_0_data_width
b10000 mma_1_matrix_size
b0 mma_2_data_in_0
b0 mma_2_data_in_1
b0 mma_2_data_in_2
b0 mma_2_data_in_3
b0 mma_2_data_in_4
b0 mma_2_data_in_5
b0 mma_2_data_in_6
b0 mma_2_data_in_7
b0 mma_2_data_in_8
b0 mma_2_data_in_9
b0 mma_2_data_in_10
b0 mma_2_data_in_11
b0 mma_2_data_in_12
b0 mma_2_data_in_13
b0 mma_2_data_in_14
b0 mma_2_data_in_15
b0 mma_3_new_weight_0
b0 mma_3_new_weight_1
b0 mma_3_new_weight_2
b0 mma_3_new_weight_3
b0 mma_3_new_weight_4
b0 mma_3_new_weight_5
b0 mma_3_new_weight_6
b0 mma_3_new_weight_7
b0 mma_3_new_weight_8
b0 mma_3_new_weight_9
b0 mma_3_new_weight_10
b0 mma_3_new_weight_11
b0 mma_3_new_weight_12
b0 mma_3_new_weight_13
b0 mma_3_new_weight_14
b0 mma_3_new_weight_15
b0 mma_4_weights_in
b0 mma_5_weights_we
b0 mouts_0
b0 mouts_1
b0 mouts_2
b0 mouts_3
b0 mouts_4
b0 mouts_5
b0 mouts_6
b0 mouts_7
b0 mouts_8
b0 mouts_9
b0 mouts_10
b0 mouts_11
b0 mouts_12
b0 mouts_13
b0 mouts_14
b0 mouts_15
b0 weights_tilebuf4
#15
b0 acc_mems_0n1
b0 acc_mems_0n2
b0 acc_mems_0n3
b0 branch_enable
b1000 mma_0_data_width
b10000 mma_1_matrix_size
b0 mma_2_data_in_0
b0 mma_2_data_in_1
b0 mma_2_data_in_2
b0 mma_2_data_in_3
b0 mma_2_data_in_4
b0 mma_2_data_in_5
b0 mma_2_data_in_6
b0 mma_2_data_in_7
b0 mma_2_data_in_8
b0 mma_2_data_in_9
b0 mma_2_data_in_10
b0 mma_2_data_in_11
b0 mma_2_data_in_12
b0 mma_2_data_in_13
b0 mma_2_data_in_14
b0 mma_2_data_in_15
b0 mma_3_new_weight_0
b0 mma_3_new_weight_1
b0 mma_3_new_weight_2
b0 mma_3_new_weight_3
b0 mma_3_new_weight_4
b0 mma_3_new_weight_5
b0 mma_3_new_weight_6
b0 mma_3_new_weight_7
b0 mma_3_new_weight_8
b0 mma_3_new_weight_9
b0 mma_3_new_weight_10
b0 mma_3_new_weight_11
b0 mma_3_new_weight_12
b0 mma_3_new_weight_13
b0 mma_3_new_weight_14
b0 mma_3_new_weight_15
b0 mma_4_weights_in
b0 mma_5_weights_we
b0 mouts_0
b0 mouts_1
b0 mouts_2
b0 mouts_3
b0 mouts_4
b0 mouts_5
b0 mouts_6
b0 mouts_7
b0 mouts_8
b0 mouts_9
b0 mouts_10
b0 mouts_11
b0 mouts_12
b0 mouts_13
b0 mouts_14
b0 mouts_15
b0 weights_tilebuf4
#16
b0 acc_mems_0n1
b0 acc_mems_0n2
b0 acc_mems_0n3
b0 branch_enable
b1000 mma_0_data_width
b10000 mma_1_matrix_size
b0 mma_2_data_in_0
b0 mma_2_data_in_1
b0 mma_2_data_in_2
b0 mma_2_data_in_3
b0 mma_2_data_in_4
b0 mma_2_data_in_5
b0 mma_2_data_in_6
b0 mma_2_data_in_7
b0 mma_2_data_in_8
b0 mma_2_data_in_9
b0 mma_2_data_in_10
b0 mma_2_data_in_11
b0 mma_2_data_in_12
b0 mma_2_data_in_13
b0 mma_2_data_in_14
b0 mma_2_data_in_15
b0 mma_3_new_weight_0
b0 mma_3_new_weight_1
b0 mma_3_new_weight_2
b0 mma_3_new_weight_3
b0 mma_3_new_weight_4
b0 mma_3_new_weight_5
b0 mma_3_new_weight_6
b0 mma_3_new_weight_7
b0 mma_3_new_weight_8
b0 mma_3_new_weight_9
b0 mma_3_new_weight_10
b0 mma_3_new_weight_11
b0 mma_3_new_weight_12
b0 mma_3_new_weight_13
b0 mma_3_new_weight_14
b0 mma_3_new_weight_15
b0 mma_4_weights_in
b0 mma_5_weights_we
b0 mouts_0
b0 mouts_1
b0 mouts_2
b0 mouts_3
b0 mouts_4
b0 mouts_5
b0 mouts_6
b0 mouts_7
b0 mouts_8
b0 mouts_9
b0 mouts_10
b0 mouts_11
b0 mouts_12
b0 mouts_13
b0 mouts_14
b0 mouts_15
b0 weights_tilebuf4
