trace_mma_rw2.vcd
$timescale 1ns $end
$scope module logic $end
$var wire 32 mma_0_data_width mma_0_data_width $end
$var wire 32 mma_1_matrix_size mma_1_matrix_size $end
$var wire 8 mma_2_data_in_0 mma_2_data_in_0 $end
$var wire 8 mma_2_data_in_1 mma_2_data_in_1 $end
$var wire 8 mma_2_data_in_2 mma_2_data_in_2 $end
$var wire 8 mma_2_data_in_3 mma_2_data_in_3 $end
$var wire 8 mma_2_data_in_4 mma_2_data_in_4 $end
$var wire 8 mma_2_data_in_5 mma_2_data_in_5 $end
$var wire 8 mma_2_data_in_6 mma_2_data_in_6 $end
$var wire 8 mma_2_data_in_7 mma_2_data_in_7 $end
$var wire 8 mma_2_data_in_8 mma_2_data_in_8 $end
$var wire 8 mma_2_data_in_9 mma_2_data_in_9 $end
$var wire 8 mma_2_data_in_10 mma_2_data_in_10 $end
$var wire 8 mma_2_data_in_11 mma_2_data_in_11 $end
$var wire 8 mma_2_data_in_12 mma_2_data_in_12 $end
$var wire 8 mma_2_data_in_13 mma_2_data_in_13 $end
$var wire 8 mma_2_data_in_14 mma_2_data_in_14 $end
$var wire 8 mma_2_data_in_15 mma_2_data_in_15 $end
$var wire 1 mma_3_new_weight_0 mma_3_new_weight_0 $end
$var wire 1 mma_3_new_weight_1 mma_3_new_weight_1 $end
$var wire 1 mma_3_new_weight_2 mma_3_new_weight_2 $end
$var wire 1 mma_3_new_weight_3 mma_3_new_weight_3 $end
$var wire 1 mma_3_new_weight_4 mma_3_new_weight_4 $end
$var wire 1 mma_3_new_weight_5 mma_3_new_weight_5 $end
$var wire 1 mma_3_new_weight_6 mma_3_new_weight_6 $end
$var wire 1 mma_3_new_weight_7 mma_3_new_weight_7 $end
$var wire 1 mma_3_new_weight_8 mma_3_new_weight_8 $end
$var wire 1 mma_3_new_weight_9 mma_3_new_weight_9 $end
$var wire 1 mma_3_new_weight_10 mma_3_new_weight_10 $end
$var wire 1 mma_3_new_weight_11 mma_3_new_weight_11 $end
$var wire 1 mma_3_new_weight_12 mma_3_new_weight_12 $end
$var wire 1 mma_3_new_weight_13 mma_3_new_weight_13 $end
$var wire 1 mma_3_new_weight_14 mma_3_new_weight_14 $end
$var wire 1 mma_3_new_weight_15 mma_3_new_weight_15 $end
$var wire 2048 mma_4_weights_in mma_4_weights_in $end
$var wire 1 mma_5_weights_we mma_5_weights_we $end
$upscope $end
$enddefinitions $end
$dumpvars
b1000 mma_0_data_width
b10000 mma_1_matrix_size
b0 mma_2_data_in_0
b0 mma_2_data_in_1
b0 mma_2_data_in_2
b0 mma_2_data_in_3
b0 mma_2_data_in_4
b0 mma_2_data_in_5
b0 mma_2_data_in_6
b0 mma_2_data_in_7
b0 mma_2_data_in_8
b0 mma_2_data_in_9
b0 mma_2_data_in_10
b0 mma_2_data_in_11
b0 mma_2_data_in_12
b0 mma_2_data_in_13
b0 mma_2_data_in_14
b0 mma_2_data_in_15
b0 mma_3_new_weight_0
b0 mma_3_new_weight_1
b0 mma_3_new_weight_2
b0 mma_3_new_weight_3
b0 mma_3_new_weight_4
b0 mma_3_new_weight_5
b0 mma_3_new_weight_6
b0 mma_3_new_weight_7
b0 mma_3_new_weight_8
b0 mma_3_new_weight_9
b0 mma_3_new_weight_10
b0 mma_3_new_weight_11
b0 mma_3_new_weight_12
b0 mma_3_new_weight_13
b0 mma_3_new_weight_14
b0 mma_3_new_weight_15
b0 mma_4_weights_in
b0 mma_5_weights_we
$end
#0
b1000 mma_0_data_width
b10000 mma_1_matrix_size
b0 mma_2_data_in_0
b0 mma_2_data_in_1
b0 mma_2_data_in_2
b0 mma_2_data_in_3
b0 mma_2_data_in_4
b0 mma_2_data_in_5
b0 mma_2_data_in_6
b0 mma_2_data_in_7
b0 mma_2_data_in_8
b0 mma_2_data_in_9
b0 mma_2_data_in_10
b0 mma_2_data_in_11
b0 mma_2_data_in_12
b0 mma_2_data_in_13
b0 mma_2_data_in_14
b0 mma_2_data_in_15
b0 mma_3_new_weight_0
b0 mma_3_new_weight_1
b0 mma_3_new_weight_2
b0 mma_3_new_weight_3
b0 mma_3_new_weight_4
b0 mma_3_new_weight_5
b0 mma_3_new_weight_6
b0 mma_3_new_weight_7
b0 mma_3_new_weight_8
b0 mma_3_new_weight_9
b0 mma_3_new_weight_10
b0 mma_3_new_weight_11
b0 mma_3_new_weight_12
b0 mma_3_new_weight_13
b0 mma_3_new_weight_14
b0 mma_3_new_weight_15
b0 mma_4_weights_in
b0 mma_5_weights_we
#1
b1000 mma_0_data_width
b10000 mma_1_matrix_size
b0 mma_2_data_in_0
b0 mma_2_data_in_1
b0 mma_2_data_in_2
b0 mma_2_data_in_3
b0 mma_2_data_in_4
b0 mma_2_data_in_5
b0 mma_2_data_in_6
b0 mma_2_data_in_7
b0 mma_2_data_in_8
b0 mma_2_data_in_9
b0 mma_2_data_in_10
b0 mma_2_data_in_11
b0 mma_2_data_in_12
b0 mma_2_data_in_13
b0 mma_2_data_in_14
b0 mma_2_data_in_15
b0 mma_3_new_weight_0
b0 mma_3_new_weight_1
b0 mma_3_new_weight_2
b0 mma_3_new_weight_3
b0 mma_3_new_weight_4
b0 mma_3_new_weight_5
b0 mma_3_new_weight_6
b0 mma_3_new_weight_7
b0 mma_3_new_weight_8
b0 mma_3_new_weight_9
b0 mma_3_new_weight_10
b0 mma_3_new_weight_11
b0 mma_3_new_weight_12
b0 mma_3_new_weight_13
b0 mma_3_new_weight_14
b0 mma_3_new_weight_15
b0 mma_4_weights_in
b0 mma_5_weights_we
#2
b1000 mma_0_data_width
b10000 mma_1_matrix_size
b0 mma_2_data_in_0
b0 mma_2_data_in_1
b0 mma_2_data_in_2
b0 mma_2_data_in_3
b0 mma_2_data_in_4
b0 mma_2_data_in_5
b0 mma_2_data_in_6
b0 mma_2_data_in_7
b0 mma_2_data_in_8
b0 mma_2_data_in_9
b0 mma_2_data_in_10
b0 mma_2_data_in_11
b0 mma_2_data_in_12
b0 mma_2_data_in_13
b0 mma_2_data_in_14
b0 mma_2_data_in_15
b0 mma_3_new_weight_0
b0 mma_3_new_weight_1
b0 mma_3_new_weight_2
b0 mma_3_new_weight_3
b0 mma_3_new_weight_4
b0 mma_3_new_weight_5
b0 mma_3_new_weight_6
b0 mma_3_new_weight_7
b0 mma_3_new_weight_8
b0 mma_3_new_weight_9
b0 mma_3_new_weight_10
b0 mma_3_new_weight_11
b0 mma_3_new_weight_12
b0 mma_3_new_weight_13
b0 mma_3_new_weight_14
b0 mma_3_new_weight_15
b0 mma_4_weights_in
b0 mma_5_weights_we
#3
b1000 mma_0_data_width
b10000 mma_1_matrix_size
b0 mma_2_data_in_0
b0 mma_2_data_in_1
b0 mma_2_data_in_2
b0 mma_2_data_in_3
b0 mma_2_data_in_4
b0 mma_2_data_in_5
b0 mma_2_data_in_6
b0 mma_2_data_in_7
b0 mma_2_data_in_8
b0 mma_2_data_in_9
b0 mma_2_data_in_10
b0 mma_2_data_in_11
b0 mma_2_data_in_12
b0 mma_2_data_in_13
b0 mma_2_data_in_14
b0 mma_2_data_in_15
b0 mma_3_new_weight_0
b0 mma_3_new_weight_1
b0 mma_3_new_weight_2
b0 mma_3_new_weight_3
b0 mma_3_new_weight_4
b0 mma_3_new_weight_5
b0 mma_3_new_weight_6
b0 mma_3_new_weight_7
b0 mma_3_new_weight_8
b0 mma_3_new_weight_9
b0 mma_3_new_weight_10
b0 mma_3_new_weight_11
b0 mma_3_new_weight_12
b0 mma_3_new_weight_13
b0 mma_3_new_weight_14
b0 mma_3_new_weight_15
b0 mma_4_weights_in
b0 mma_5_weights_we
#4
b1000 mma_0_data_width
b10000 mma_1_matrix_size
b0 mma_2_data_in_0
b0 mma_2_data_in_1
b0 mma_2_data_in_2
b0 mma_2_data_in_3
b0 mma_2_data_in_4
b0 mma_2_data_in_5
b0 mma_2_data_in_6
b0 mma_2_data_in_7
b0 mma_2_data_in_8
b0 mma_2_data_in_9
b0 mma_2_data_in_10
b0 mma_2_data_in_11
b0 mma_2_data_in_12
b0 mma_2_data_in_13
b0 mma_2_data_in_14
b0 mma_2_data_in_15
b0 mma_3_new_weight_0
b0 mma_3_new_weight_1
b0 mma_3_new_weight_2
b0 mma_3_new_weight_3
b0 mma_3_new_weight_4
b0 mma_3_new_weight_5
b0 mma_3_new_weight_6
b0 mma_3_new_weight_7
b0 mma_3_new_weight_8
b0 mma_3_new_weight_9
b0 mma_3_new_weight_10
b0 mma_3_new_weight_11
b0 mma_3_new_weight_12
b0 mma_3_new_weight_13
b0 mma_3_new_weight_14
b0 mma_3_new_weight_15
b0 mma_4_weights_in
b0 mma_5_weights_we
#5
b1000 mma_0_data_width
b10000 mma_1_matrix_size
b0 mma_2_data_in_0
b0 mma_2_data_in_1
b0 mma_2_data_in_2
b0 mma_2_data_in_3
b0 mma_2_data_in_4
b0 mma_2_data_in_5
b0 mma_2_data_in_6
b0 mma_2_data_in_7
b0 mma_2_data_in_8
b0 mma_2_data_in_9
b0 mma_2_data_in_10
b0 mma_2_data_in_11
b0 mma_2_data_in_12
b0 mma_2_data_in_13
b0 mma_2_data_in_14
b0 mma_2_data_in_15
b0 mma_3_new_weight_0
b0 mma_3_new_weight_1
b0 mma_3_new_weight_2
b0 mma_3_new_weight_3
b0 mma_3_new_weight_4
b0 mma_3_new_weight_5
b0 mma_3_new_weight_6
b0 mma_3_new_weight_7
b0 mma_3_new_weight_8
b0 mma_3_new_weight_9
b0 mma_3_new_weight_10
b0 mma_3_new_weight_11
b0 mma_3_new_weight_12
b0 mma_3_new_weight_13
b0 mma_3_new_weight_14
b0 mma_3_new_weight_15
b0 mma_4_weights_in
b0 mma_5_weights_we
#6
b1000 mma_0_data_width
b10000 mma_1_matrix_size
b0 mma_2_data_in_0
b0 mma_2_data_in_1
b0 mma_2_data_in_2
b0 mma_2_data_in_3
b0 mma_2_data_in_4
b0 mma_2_data_in_5
b0 mma_2_data_in_6
b0 mma_2_data_in_7
b0 mma_2_data_in_8
b0 mma_2_data_in_9
b0 mma_2_data_in_10
b0 mma_2_data_in_11
b0 mma_2_data_in_12
b0 mma_2_data_in_13
b0 mma_2_data_in_14
b0 mma_2_data_in_15
b0 mma_3_new_weight_0
b0 mma_3_new_weight_1
b0 mma_3_new_weight_2
b0 mma_3_new_weight_3
b0 mma_3_new_weight_4
b0 mma_3_new_weight_5
b0 mma_3_new_weight_6
b0 mma_3_new_weight_7
b0 mma_3_new_weight_8
b0 mma_3_new_weight_9
b0 mma_3_new_weight_10
b0 mma_3_new_weight_11
b0 mma_3_new_weight_12
b0 mma_3_new_weight_13
b0 mma_3_new_weight_14
b0 mma_3_new_weight_15
b0 mma_4_weights_in
b0 mma_5_weights_we
#7
b1000 mma_0_data_width
b10000 mma_1_matrix_size
b0 mma_2_data_in_0
b0 mma_2_data_in_1
b0 mma_2_data_in_2
b0 mma_2_data_in_3
b0 mma_2_data_in_4
b0 mma_2_data_in_5
b0 mma_2_data_in_6
b0 mma_2_data_in_7
b0 mma_2_data_in_8
b0 mma_2_data_in_9
b0 mma_2_data_in_10
b0 mma_2_data_in_11
b0 mma_2_data_in_12
b0 mma_2_data_in_13
b0 mma_2_data_in_14
b0 mma_2_data_in_15
b0 mma_3_new_weight_0
b0 mma_3_new_weight_1
b0 mma_3_new_weight_2
b0 mma_3_new_weight_3
b0 mma_3_new_weight_4
b0 mma_3_new_weight_5
b0 mma_3_new_weight_6
b0 mma_3_new_weight_7
b0 mma_3_new_weight_8
b0 mma_3_new_weight_9
b0 mma_3_new_weight_10
b0 mma_3_new_weight_11
b0 mma_3_new_weight_12
b0 mma_3_new_weight_13
b0 mma_3_new_weight_14
b0 mma_3_new_weight_15
b0 mma_4_weights_in
b0 mma_5_weights_we
#8
b1000 mma_0_data_width
b10000 mma_1_matrix_size
b0 mma_2_data_in_0
b0 mma_2_data_in_1
b0 mma_2_data_in_2
b0 mma_2_data_in_3
b0 mma_2_data_in_4
b0 mma_2_data_in_5
b0 mma_2_data_in_6
b0 mma_2_data_in_7
b0 mma_2_data_in_8
b0 mma_2_data_in_9
b0 mma_2_data_in_10
b0 mma_2_data_in_11
b0 mma_2_data_in_12
b0 mma_2_data_in_13
b0 mma_2_data_in_14
b0 mma_2_data_in_15
b0 mma_3_new_weight_0
b0 mma_3_new_weight_1
b0 mma_3_new_weight_2
b0 mma_3_new_weight_3
b0 mma_3_new_weight_4
b0 mma_3_new_weight_5
b0 mma_3_new_weight_6
b0 mma_3_new_weight_7
b0 mma_3_new_weight_8
b0 mma_3_new_weight_9
b0 mma_3_new_weight_10
b0 mma_3_new_weight_11
b0 mma_3_new_weight_12
b0 mma_3_new_weight_13
b0 mma_3_new_weight_14
b0 mma_3_new_weight_15
b0 mma_4_weights_in
b0 mma_5_weights_we
#9
b1000 mma_0_data_width
b10000 mma_1_matrix_size
b0 mma_2_data_in_0
b0 mma_2_data_in_1
b0 mma_2_data_in_2
b0 mma_2_data_in_3
b0 mma_2_data_in_4
b0 mma_2_data_in_5
b0 mma_2_data_in_6
b0 mma_2_data_in_7
b0 mma_2_data_in_8
b0 mma_2_data_in_9
b0 mma_2_data_in_10
b0 mma_2_data_in_11
b0 mma_2_data_in_12
b0 mma_2_data_in_13
b0 mma_2_data_in_14
b0 mma_2_data_in_15
b0 mma_3_new_weight_0
b0 mma_3_new_weight_1
b0 mma_3_new_weight_2
b0 mma_3_new_weight_3
b0 mma_3_new_weight_4
b0 mma_3_new_weight_5
b0 mma_3_new_weight_6
b0 mma_3_new_weight_7
b0 mma_3_new_weight_8
b0 mma_3_new_weight_9
b0 mma_3_new_weight_10
b0 mma_3_new_weight_11
b0 mma_3_new_weight_12
b0 mma_3_new_weight_13
b0 mma_3_new_weight_14
b0 mma_3_new_weight_15
b0 mma_4_weights_in
b0 mma_5_weights_we
#10
b1000 mma_0_data_width
b10000 mma_1_matrix_size
b0 mma_2_data_in_0
b0 mma_2_data_in_1
b0 mma_2_data_in_2
b0 mma_2_data_in_3
b0 mma_2_data_in_4
b0 mma_2_data_in_5
b0 mma_2_data_in_6
b0 mma_2_data_in_7
b0 mma_2_data_in_8
b0 mma_2_data_in_9
b0 mma_2_data_in_10
b0 mma_2_data_in_11
b0 mma_2_data_in_12
b0 mma_2_data_in_13
b0 mma_2_data_in_14
b0 mma_2_data_in_15
b0 mma_3_new_weight_0
b0 mma_3_new_weight_1
b0 mma_3_new_weight_2
b0 mma_3_new_weight_3
b0 mma_3_new_weight_4
b0 mma_3_new_weight_5
b0 mma_3_new_weight_6
b0 mma_3_new_weight_7
b0 mma_3_new_weight_8
b0 mma_3_new_weight_9
b0 mma_3_new_weight_10
b0 mma_3_new_weight_11
b0 mma_3_new_weight_12
b0 mma_3_new_weight_13
b0 mma_3_new_weight_14
b0 mma_3_new_weight_15
b0 mma_4_weights_in
b0 mma_5_weights_we
#11
b1000 mma_0_data_width
b10000 mma_1_matrix_size
b0 mma_2_data_in_0
b0 mma_2_data_in_1
b0 mma_2_data_in_2
b0 mma_2_data_in_3
b0 mma_2_data_in_4
b0 mma_2_data_in_5
b0 mma_2_data_in_6
b0 mma_2_data_in_7
b0 mma_2_data_in_8
b0 mma_2_data_in_9
b0 mma_2_data_in_10
b0 mma_2_data_in_11
b0 mma_2_data_in_12
b0 mma_2_data_in_13
b0 mma_2_data_in_14
b0 mma_2_data_in_15
b0 mma_3_new_weight_0
b0 mma_3_new_weight_1
b0 mma_3_new_weight_2
b0 mma_3_new_weight_3
b0 mma_3_new_weight_4
b0 mma_3_new_weight_5
b0 mma_3_new_weight_6
b0 mma_3_new_weight_7
b0 mma_3_new_weight_8
b0 mma_3_new_weight_9
b0 mma_3_new_weight_10
b0 mma_3_new_weight_11
b0 mma_3_new_weight_12
b0 mma_3_new_weight_13
b0 mma_3_new_weight_14
b0 mma_3_new_weight_15
b0 mma_4_weights_in
b0 mma_5_weights_we
#12
b1000 mma_0_data_width
b10000 mma_1_matrix_size
b0 mma_2_data_in_0
b0 mma_2_data_in_1
b0 mma_2_data_in_2
b0 mma_2_data_in_3
b0 mma_2_data_in_4
b0 mma_2_data_in_5
b0 mma_2_data_in_6
b0 mma_2_data_in_7
b0 mma_2_data_in_8
b0 mma_2_data_in_9
b0 mma_2_data_in_10
b0 mma_2_data_in_11
b0 mma_2_data_in_12
b0 mma_2_data_in_13
b0 mma_2_data_in_14
b0 mma_2_data_in_15
b0 mma_3_new_weight_0
b0 mma_3_new_weight_1
b0 mma_3_new_weight_2
b0 mma_3_new_weight_3
b0 mma_3_new_weight_4
b0 mma_3_new_weight_5
b0 mma_3_new_weight_6
b0 mma_3_new_weight_7
b0 mma_3_new_weight_8
b0 mma_3_new_weight_9
b0 mma_3_new_weight_10
b0 mma_3_new_weight_11
b0 mma_3_new_weight_12
b0 mma_3_new_weight_13
b0 mma_3_new_weight_14
b0 mma_3_new_weight_15
b0 mma_4_weights_in
b0 mma_5_weights_we
#13
b1000 mma_0_data_width
b10000 mma_1_matrix_size
b0 mma_2_data_in_0
b0 mma_2_data_in_1
b0 mma_2_data_in_2
b0 mma_2_data_in_3
b0 mma_2_data_in_4
b0 mma_2_data_in_5
b0 mma_2_data_in_6
b0 mma_2_data_in_7
b0 mma_2_data_in_8
b0 mma_2_data_in_9
b0 mma_2_data_in_10
b0 mma_2_data_in_11
b0 mma_2_data_in_12
b0 mma_2_data_in_13
b0 mma_2_data_in_14
b0 mma_2_data_in_15
b0 mma_3_new_weight_0
b0 mma_3_new_weight_1
b0 mma_3_new_weight_2
b0 mma_3_new_weight_3
b0 mma_3_new_weight_4
b0 mma_3_new_weight_5
b0 mma_3_new_weight_6
b0 mma_3_new_weight_7
b0 mma_3_new_weight_8
b0 mma_3_new_weight_9
b0 mma_3_new_weight_10
b0 mma_3_new_weight_11
b0 mma_3_new_weight_12
b0 mma_3_new_weight_13
b0 mma_3_new_weight_14
b0 mma_3_new_weight_15
b0 mma_4_weights_in
b0 mma_5_weights_we
#14
b1000 mma_0_data_width
b10000 mma_1_matrix_size
b0 mma_2_data_in_0
b0 mma_2_data_in_1
b0 mma_2_data_in_2
b0 mma_2_data_in_3
b0 mma_2_data_in_4
b0 mma_2_data_in_5
b0 mma_2_data_in_6
b0 mma_2_data_in_7
b0 mma_2_data_in_8
b0 mma_2_data_in_9
b0 mma_2_data_in_10
b0 mma_2_data_in_11
b0 mma_2_data_in_12
b0 mma_2_data_in_13
b0 mma_2_data_in_14
b0 mma_2_data_in_15
b0 mma_3_new_weight_0
b0 mma_3_new_weight_1
b0 mma_3_new_weight_2
b0 mma_3_new_weight_3
b0 mma_3_new_weight_4
b0 mma_3_new_weight_5
b0 mma_3_new_weight_6
b0 mma_3_new_weight_7
b0 mma_3_new_weight_8
b0 mma_3_new_weight_9
b0 mma_3_new_weight_10
b0 mma_3_new_weight_11
b0 mma_3_new_weight_12
b0 mma_3_new_weight_13
b0 mma_3_new_weight_14
b0 mma_3_new_weight_15
b0 mma_4_weights_in
b0 mma_5_weights_we
#15
b1000 mma_0_data_width
b10000 mma_1_matrix_size
b0 mma_2_data_in_0
b0 mma_2_data_in_1
b0 mma_2_data_in_2
b0 mma_2_data_in_3
b0 mma_2_data_in_4
b0 mma_2_data_in_5
b0 mma_2_data_in_6
b0 mma_2_data_in_7
b0 mma_2_data_in_8
b0 mma_2_data_in_9
b0 mma_2_data_in_10
b0 mma_2_data_in_11
b0 mma_2_data_in_12
b0 mma_2_data_in_13
b0 mma_2_data_in_14
b0 mma_2_data_in_15
b0 mma_3_new_weight_0
b0 mma_3_new_weight_1
b0 mma_3_new_weight_2
b0 mma_3_new_weight_3
b0 mma_3_new_weight_4
b0 mma_3_new_weight_5
b0 mma_3_new_weight_6
b0 mma_3_new_weight_7
b0 mma_3_new_weight_8
b0 mma_3_new_weight_9
b0 mma_3_new_weight_10
b0 mma_3_new_weight_11
b0 mma_3_new_weight_12
b0 mma_3_new_weight_13
b0 mma_3_new_weight_14
b0 mma_3_new_weight_15
b0 mma_4_weights_in
b0 mma_5_weights_we
#16
b1000 mma_0_data_width
b10000 mma_1_matrix_size
b0 mma_2_data_in_0
b0 mma_2_data_in_1
b0 mma_2_data_in_2
b0 mma_2_data_in_3
b0 mma_2_data_in_4
b0 mma_2_data_in_5
b0 mma_2_data_in_6
b0 mma_2_data_in_7
b0 mma_2_data_in_8
b0 mma_2_data_in_9
b0 mma_2_data_in_10
b0 mma_2_data_in_11
b0 mma_2_data_in_12
b0 mma_2_data_in_13
b0 mma_2_data_in_14
b0 mma_2_data_in_15
b0 mma_3_new_weight_0
b0 mma_3_new_weight_1
b0 mma_3_new_weight_2
b0 mma_3_new_weight_3
b0 mma_3_new_weight_4
b0 mma_3_new_weight_5
b0 mma_3_new_weight_6
b0 mma_3_new_weight_7
b0 mma_3_new_weight_8
b0 mma_3_new_weight_9
b0 mma_3_new_weight_10
b0 mma_3_new_weight_11
b0 mma_3_new_weight_12
b0 mma_3_new_weight_13
b0 mma_3_new_weight_14
b0 mma_3_new_weight_15
b0 mma_4_weights_in
b0 mma_5_weights_we
#17
b1000 mma_0_data_width
b10000 mma_1_matrix_size
b0 mma_2_data_in_0
b0 mma_2_data_in_1
b0 mma_2_data_in_2
b0 mma_2_data_in_3
b0 mma_2_data_in_4
b0 mma_2_data_in_5
b0 mma_2_data_in_6
b0 mma_2_data_in_7
b0 mma_2_data_in_8
b0 mma_2_data_in_9
b0 mma_2_data_in_10
b0 mma_2_data_in_11
b0 mma_2_data_in_12
b0 mma_2_data_in_13
b0 mma_2_data_in_14
b0 mma_2_data_in_15
b0 mma_3_new_weight_0
b0 mma_3_new_weight_1
b0 mma_3_new_weight_2
b0 mma_3_new_weight_3
b0 mma_3_new_weight_4
b0 mma_3_new_weight_5
b0 mma_3_new_weight_6
b0 mma_3_new_weight_7
b0 mma_3_new_weight_8
b0 mma_3_new_weight_9
b0 mma_3_new_weight_10
b0 mma_3_new_weight_11
b0 mma_3_new_weight_12
b0 mma_3_new_weight_13
b0 mma_3_new_weight_14
b0 mma_3_new_weight_15
b0 mma_4_weights_in
b0 mma_5_weights_we
#18
b1000 mma_0_data_width
b10000 mma_1_matrix_size
b0 mma_2_data_in_0
b0 mma_2_data_in_1
b0 mma_2_data_in_2
b0 mma_2_data_in_3
b0 mma_2_data_in_4
b0 mma_2_data_in_5
b0 mma_2_data_in_6
b0 mma_2_data_in_7
b0 mma_2_data_in_8
b0 mma_2_data_in_9
b0 mma_2_data_in_10
b0 mma_2_data_in_11
b0 mma_2_data_in_12
b0 mma_2_data_in_13
b0 mma_2_data_in_14
b1 mma_2_data_in_15
b0 mma_3_new_weight_0
b0 mma_3_new_weight_1
b0 mma_3_new_weight_2
b0 mma_3_new_weight_3
b0 mma_3_new_weight_4
b0 mma_3_new_weight_5
b0 mma_3_new_weight_6
b0 mma_3_new_weight_7
b0 mma_3_new_weight_8
b0 mma_3_new_weight_9
b0 mma_3_new_weight_10
b0 mma_3_new_weight_11
b0 mma_3_new_weight_12
b0 mma_3_new_weight_13
b0 mma_3_new_weight_14
b0 mma_3_new_weight_15
b0 mma_4_weights_in
b0 mma_5_weights_we
#19
b1000 mma_0_data_width
b10000 mma_1_matrix_size
b0 mma_2_data_in_0
b0 mma_2_data_in_1
b0 mma_2_data_in_2
b0 mma_2_data_in_3
b0 mma_2_data_in_4
b0 mma_2_data_in_5
b0 mma_2_data_in_6
b0 mma_2_data_in_7
b0 mma_2_data_in_8
b0 mma_2_data_in_9
b0 mma_2_data_in_10
b0 mma_2_data_in_11
b0 mma_2_data_in_12
b0 mma_2_data_in_13
b0 mma_2_data_in_14
b1 mma_2_data_in_15
b0 mma_3_new_weight_0
b0 mma_3_new_weight_1
b0 mma_3_new_weight_2
b0 mma_3_new_weight_3
b0 mma_3_new_weight_4
b0 mma_3_new_weight_5
b0 mma_3_new_weight_6
b0 mma_3_new_weight_7
b0 mma_3_new_weight_8
b0 mma_3_new_weight_9
b0 mma_3_new_weight_10
b0 mma_3_new_weight_11
b0 mma_3_new_weight_12
b0 mma_3_new_weight_13
b0 mma_3_new_weight_14
b0 mma_3_new_weight_15
b0 mma_4_weights_in
b0 mma_5_weights_we
#20
b1000 mma_0_data_width
b10000 mma_1_matrix_size
b0 mma_2_data_in_0
b0 mma_2_data_in_1
b0 mma_2_data_in_2
b0 mma_2_data_in_3
b0 mma_2_data_in_4
b0 mma_2_data_in_5
b0 mma_2_data_in_6
b0 mma_2_data_in_7
b0 mma_2_data_in_8
b0 mma_2_data_in_9
b0 mma_2_data_in_10
b0 mma_2_data_in_11
b0 mma_2_data_in_12
b0 mma_2_data_in_13
b0 mma_2_data_in_14
b1 mma_2_data_in_15
b0 mma_3_new_weight_0
b0 mma_3_new_weight_1
b0 mma_3_new_weight_2
b0 mma_3_new_weight_3
b0 mma_3_new_weight_4
b0 mma_3_new_weight_5
b0 mma_3_new_weight_6
b0 mma_3_new_weight_7
b0 mma_3_new_weight_8
b0 mma_3_new_weight_9
b0 mma_3_new_weight_10
b0 mma_3_new_weight_11
b0 mma_3_new_weight_12
b0 mma_3_new_weight_13
b0 mma_3_new_weight_14
b0 mma_3_new_weight_15
b0 mma_4_weights_in
b0 mma_5_weights_we
#21
b1000 mma_0_data_width
b10000 mma_1_matrix_size
b0 mma_2_data_in_0
b0 mma_2_data_in_1
b0 mma_2_data_in_2
b0 mma_2_data_in_3
b0 mma_2_data_in_4
b0 mma_2_data_in_5
b0 mma_2_data_in_6
b0 mma_2_data_in_7
b0 mma_2_data_in_8
b0 mma_2_data_in_9
b0 mma_2_data_in_10
b0 mma_2_data_in_11
b0 mma_2_data_in_12
b0 mma_2_data_in_13
b0 mma_2_data_in_14
b1 mma_2_data_in_15
b0 mma_3_new_weight_0
b0 mma_3_new_weight_1
b0 mma_3_new_weight_2
b0 mma_3_new_weight_3
b0 mma_3_new_weight_4
b0 mma_3_new_weight_5
b0 mma_3_new_weight_6
b0 mma_3_new_weight_7
b0 mma_3_new_weight_8
b0 mma_3_new_weight_9
b0 mma_3_new_weight_10
b0 mma_3_new_weight_11
b0 mma_3_new_weight_12
b0 mma_3_new_weight_13
b0 mma_3_new_weight_14
b0 mma_3_new_weight_15
b0 mma_4_weights_in
b0 mma_5_weights_we
#22
b1000 mma_0_data_width
b10000 mma_1_matrix_size
b0 mma_2_data_in_0
b0 mma_2_data_in_1
b0 mma_2_data_in_2
b0 mma_2_data_in_3
b0 mma_2_data_in_4
b0 mma_2_data_in_5
b0 mma_2_data_in_6
b0 mma_2_data_in_7
b0 mma_2_data_in_8
b0 mma_2_data_in_9
b0 mma_2_data_in_10
b0 mma_2_data_in_11
b0 mma_2_data_in_12
b0 mma_2_data_in_13
b0 mma_2_data_in_14
b1 mma_2_data_in_15
b0 mma_3_new_weight_0
b0 mma_3_new_weight_1
b0 mma_3_new_weight_2
b0 mma_3_new_weight_3
b0 mma_3_new_weight_4
b0 mma_3_new_weight_5
b0 mma_3_new_weight_6
b0 mma_3_new_weight_7
b0 mma_3_new_weight_8
b0 mma_3_new_weight_9
b0 mma_3_new_weight_10
b0 mma_3_new_weight_11
b0 mma_3_new_weight_12
b0 mma_3_new_weight_13
b0 mma_3_new_weight_14
b0 mma_3_new_weight_15
b0 mma_4_weights_in
b0 mma_5_weights_we
#23
b1000 mma_0_data_width
b10000 mma_1_matrix_size
b0 mma_2_data_in_0
b0 mma_2_data_in_1
b0 mma_2_data_in_2
b0 mma_2_data_in_3
b0 mma_2_data_in_4
b0 mma_2_data_in_5
b0 mma_2_data_in_6
b0 mma_2_data_in_7
b0 mma_2_data_in_8
b0 mma_2_data_in_9
b0 mma_2_data_in_10
b0 mma_2_data_in_11
b0 mma_2_data_in_12
b0 mma_2_data_in_13
b0 mma_2_data_in_14
b1 mma_2_data_in_15
b0 mma_3_new_weight_0
b0 mma_3_new_weight_1
b0 mma_3_new_weight_2
b0 mma_3_new_weight_3
b0 mma_3_new_weight_4
b0 mma_3_new_weight_5
b0 mma_3_new_weight_6
b0 mma_3_new_weight_7
b0 mma_3_new_weight_8
b0 mma_3_new_weight_9
b0 mma_3_new_weight_10
b0 mma_3_new_weight_11
b0 mma_3_new_weight_12
b0 mma_3_new_weight_13
b0 mma_3_new_weight_14
b0 mma_3_new_weight_15
b0 mma_4_weights_in
b0 mma_5_weights_we
#24
b1000 mma_0_data_width
b10000 mma_1_matrix_size
b0 mma_2_data_in_0
b0 mma_2_data_in_1
b0 mma_2_data_in_2
b0 mma_2_data_in_3
b0 mma_2_data_in_4
b0 mma_2_data_in_5
b0 mma_2_data_in_6
b0 mma_2_data_in_7
b0 mma_2_data_in_8
b0 mma_2_data_in_9
b0 mma_2_data_in_10
b0 mma_2_data_in_11
b0 mma_2_data_in_12
b0 mma_2_data_in_13
b0 mma_2_data_in_14
b1 mma_2_data_in_15
b0 mma_3_new_weight_0
b0 mma_3_new_weight_1
b0 mma_3_new_weight_2
b0 mma_3_new_weight_3
b0 mma_3_new_weight_4
b0 mma_3_new_weight_5
b0 mma_3_new_weight_6
b0 mma_3_new_weight_7
b0 mma_3_new_weight_8
b0 mma_3_new_weight_9
b0 mma_3_new_weight_10
b0 mma_3_new_weight_11
b0 mma_3_new_weight_12
b0 mma_3_new_weight_13
b0 mma_3_new_weight_14
b0 mma_3_new_weight_15
b0 mma_4_weights_in
b0 mma_5_weights_we
